"face","rt","subject"
"normal",-0.872691496344594,8
"normal",0.624469467377629,8
"normal",-0.516806719269008,8
"normal",0.459384559394694,8
"normal",1.07051094111603,8
"normal",0.0671007518838188,8
"normal",1.31636604994798,8
"normal",3.3224642178863,8
"normal",0.00191819320833949,8
"normal",-0.321411843561348,8
"normal",-1.53594103873421,8
"normal",0.0380710891848158,8
"normal",0.569100024457377,8
"normal",-0.935339805258501,8
"normal",1.64727827317984,8
"normal",0.324882712064997,8
"normal",-1.61449828782274,8
"normal",-0.0465295338630848,8
"normal",1.97985508391163,8
"normal",1.28157042749084,8
"normal",0.616387605142138,8
"normal",0.216647670134327,8
"normal",-1.89650552779351,8
"normal",0.740134868150926,8
"normal",0.750082420821421,8
"normal",-0.0583364846002011,8
"normal",1.8430138442432,8
"normal",0.541751630178851,8
"normal",-0.789438352141631,8
"normal",1.69628982110935,8
"normal",-0.495665581372283,8
"normal",-0.106763698379079,8
"normal",1.26182718207573,8
"normal",-2.07197025797354,8
"normal",0.0653278751447254,8
"normal",0.655321694178356,8
"normal",0.249072901283499,8
"normal",0.93094216905634,8
"normal",-0.687405494712146,8
"normal",0.276926063072863,8
"normal",-0.126483375815429,8
"normal",-0.254770178004571,8
"normal",1.59197588276376,8
"normal",0.550209567934985,8
"normal",0.874181834992206,8
"normal",0.429758022239675,8
"normal",-0.184667110126696,8
"normal",0.43224051243038,8
"normal",0.816342697348296,8
"normal",1.27668512730316,8
"normal",-0.203166579433848,8
"normal",1.49692809487992,8
"normal",-0.363878192480059,8
"normal",0.390131020570089,8
"normal",-0.938809318993598,8
"normal",-0.858302515713471,8
"normal",-0.561028476223012,8
"normal",-0.0175371858417124,8
"normal",0.0616295669015783,8
"normal",-0.995803385832162,8
"normal",0.00508704220556493,8
"normal",-0.118846324796246,8
"normal",0.562316434517206,8
"normal",-0.754758508616411,8
"normal",-1.46365212801809,8
"normal",-0.0742846253778471,8
"normal",-0.323995273899875,8
"normal",0.330929265044806,8
"normal",-1.07442202526892,8
"normal",0.647410158782435,8
"normal",-0.564482415035279,8
"normal",-0.157135913611393,8
"normal",0.135884549312841,8
"normal",0.193921673538578,8
"normal",1.20581435319374,8
"normal",-0.740429705051205,8
"normal",-0.0436407742441168,8
"normal",0.0796652437516897,8
"normal",-0.496522470506267,8
"normal",1.90074005907827,8
"normal",-0.0922739593632093,8
"normal",-0.45119223299565,8
"normal",1.66095207999069,8
"normal",-0.40566740431171,8
"normal",1.68292178359041,8
"normal",-0.409059490775159,8
"normal",-0.313670351331019,8
"normal",-0.0188066743761098,8
"normal",-1.52553495832369,8
"normal",-0.0912219940837526,8
"normal",-0.276661332931488,8
"normal",0.239337844597961,8
"normal",1.46898636056254,8
"normal",-0.0983643237017824,8
"normal",0.256770213086011,8
"normal",-0.189838155538346,8
"normal",-2.29791192764154,8
"normal",0.666615666746682,8
"normal",0.555213261391004,8
"normal",1.53707806584289,8
"disfigured",-0.0449726775632467,8
"disfigured",0.871550208698467,8
"disfigured",-1.59415687514679,8
"disfigured",1.02045112632461,8
"disfigured",0.196013315110522,8
"disfigured",-0.696290178825487,8
"disfigured",0.484950587396933,8
"disfigured",-0.758790951189293,8
"disfigured",1.00023825116774,8
"disfigured",-0.807687548983742,8
"disfigured",0.162629710013844,8
"disfigured",-1.22865378988401,8
"disfigured",-0.315936613592074,8
"disfigured",-0.743047338860324,8
"disfigured",0.414008107182875,8
"disfigured",1.46454186635438,8
"disfigured",-0.351669167017025,8
"disfigured",3.43854408679484,8
"disfigured",2.71067384713523,8
"disfigured",0.743209235589938,8
"disfigured",-2.21640975171854,8
"disfigured",-0.364917138846372,8
"disfigured",1.62184541416535,8
"disfigured",0.527917734320326,8
"disfigured",-0.0959807120016978,8
"disfigured",0.531613455123271,8
"disfigured",2.8105695346682,8
"disfigured",0.161623985787606,8
"disfigured",1.60891503465394,8
"disfigured",-0.224744372014921,8
"disfigured",-0.244907065928834,8
"disfigured",-0.00302888791937617,8
"disfigured",1.29424187143575,8
"disfigured",1.10003021792543,8
"disfigured",-1.84232036278702,8
"disfigured",0.238613398146651,8
"disfigured",1.09715958201842,8
"disfigured",2.35286515249395,8
"disfigured",1.10894780933408,8
"disfigured",0.105391269739458,8
"disfigured",-0.0406015468589583,8
"disfigured",0.128533256755363,8
"disfigured",-0.0515630738214277,8
"disfigured",-0.591488970666102,8
"disfigured",0.576455624175608,8
"disfigured",1.15830243673349,8
"disfigured",-0.505988173081618,8
"disfigured",2.26130630476606,8
"disfigured",-0.302033611173937,8
"disfigured",2.3138269018243,8
"disfigured",-0.0143986100446284,8
"disfigured",-1.15679580399075,8
"disfigured",0.944865028793571,8
"disfigured",1.02888445862016,8
"disfigured",-0.260750482258482,8
"disfigured",0.20857921048336,8
"disfigured",0.806830042891079,8
"disfigured",1.56790463401247,8
"disfigured",0.868368831556288,8
"disfigured",0.732637421650395,8
"disfigured",0.696862817436308,8
"disfigured",0.182179634524608,8
"disfigured",-0.389196644663322,8
"disfigured",0.174074254669724,8
"disfigured",-0.574235047758888,8
"disfigured",1.82164703994236,8
"disfigured",1.42490480330603,8
"disfigured",1.98059295200244,8
"disfigured",2.24900906158261,8
"disfigured",0.50129893872924,8
"disfigured",1.70422214252593,8
"disfigured",0.852581726812803,8
"disfigured",-0.120282169622678,8
"disfigured",-0.475973932022077,8
"disfigured",0.848639836039126,8
"disfigured",1.78753533610236,8
"disfigured",0.71449071095503,8
"disfigured",1.18736112000106,8
"disfigured",-0.308204812357615,8
"disfigured",-0.925790137085928,8
"disfigured",0.38070145246279,8
"disfigured",1.15362834026926,8
"disfigured",1.43045910987701,8
"disfigured",0.148345254913135,8
"disfigured",1.08026074796101,8
"disfigured",0.981766408840071,8
"disfigured",1.70141816212076,8
"disfigured",-0.18527001673099,8
"disfigured",1.34427338946606,8
"disfigured",-0.12905213961142,8
"disfigured",0.971797026384519,8
"disfigured",0.202253974259625,8
"disfigured",-0.324362795970103,8
"disfigured",-0.450019476110981,8
"disfigured",-0.0608689356805536,8
"disfigured",0.921183752487733,8
"disfigured",0.532981468051712,8
"disfigured",1.93466736546346,8
"disfigured",0.498607167808011,8
"disfigured",0.23180711517059,8
