"face","rt","subject"
"normal",-0.328344917761994,28
"normal",-0.748056545586507,28
"normal",0.850639908730173,28
"normal",-0.33843126029678,28
"normal",-1.22681619763769,28
"normal",0.608421543448572,28
"normal",1.47839326984639,28
"normal",0.771173315011076,28
"normal",-0.0946761091778988,28
"normal",-0.167676603039277,28
"normal",-0.823016774718676,28
"normal",1.24728754443702,28
"normal",-1.21096302544479,28
"normal",-0.330422285127195,28
"normal",0.364578908681364,28
"normal",-1.22957275647582,28
"normal",-0.488667411280091,28
"normal",0.779736942123372,28
"normal",-0.719437446290183,28
"normal",-0.249171926387105,28
"normal",-0.183405213124877,28
"normal",1.09263549648965,28
"normal",-0.935440467212257,28
"normal",1.33745569469036,28
"normal",0.184793123718692,28
"normal",0.0871082272534105,28
"normal",-0.46151144368534,28
"normal",-1.31340164638929,28
"normal",-0.139455568752238,28
"normal",0.788705314454214,28
"normal",-0.685967559461626,28
"normal",-0.217429351703362,28
"normal",1.00364333768317,28
"normal",-0.70861480526075,28
"normal",-0.215089285412754,28
"normal",0.708618359956448,28
"normal",0.0912272635000551,28
"normal",-0.158223249998479,28
"normal",0.198582516516552,28
"normal",-1.40810078626558,28
"normal",-0.238728117971902,28
"normal",0.652705058224382,28
"normal",1.30397128425029,28
"normal",1.2408417422525,28
"normal",1.37473507921287,28
"normal",-0.0868349785278094,28
"normal",0.0262556478679685,28
"normal",0.0364800634701368,28
"normal",2.06635096166785,28
"normal",0.620967284945556,28
"normal",1.22985427666526,28
"normal",-0.415157625097709,28
"normal",1.09692070293667,28
"normal",0.504221586935712,28
"normal",0.158090385399109,28
"normal",0.0294375616803404,28
"normal",1.45646946449258,28
"normal",-1.61472232438328,28
"normal",0.506404196490232,28
"normal",-0.815626970389471,28
"normal",-0.370701894768895,28
"normal",-1.45031357058656,28
"normal",-1.06130333540369,28
"normal",1.64656980329685,28
"normal",-0.206464202656629,28
"normal",0.0216949147413475,28
"normal",1.79195655617021,28
"normal",0.0931321684309501,28
"normal",-0.133903418097726,28
"normal",-1.31436307226025,28
"normal",-0.321583160864127,28
"normal",1.81464759078368,28
"normal",0.675425912383793,28
"normal",0.687269068789901,28
"normal",-1.47448560051347,28
"normal",0.831383255552045,28
"normal",-0.66159334920658,28
"normal",-1.80068486752294,28
"normal",1.2487833603434,28
"normal",1.3618695400083,28
"normal",-0.137039228739601,28
"normal",-1.48862730049604,28
"normal",-0.235515742227424,28
"normal",0.445330558052173,28
"normal",-0.34173476568559,28
"normal",0.28600706196207,28
"normal",0.164400982534532,28
"normal",0.975480435536813,28
"normal",0.326121614777839,28
"normal",0.197965419821804,28
"normal",-0.895469919543638,28
"normal",1.7088066025472,28
"normal",0.655858034178812,28
"normal",0.083085409691033,28
"normal",-1.39429863868747,28
"normal",0.73492659501143,28
"normal",0.944783981113254,28
"normal",0.874485505165603,28
"normal",-1.31537511458609,28
"normal",-0.0945714276610531,28
"disfigured",1.29958699023222,28
"disfigured",-0.297860389958337,28
"disfigured",0.00885487273308022,28
"disfigured",-0.0362483590652741,28
"disfigured",1.18373462915564,28
"disfigured",0.501402809644686,28
"disfigured",2.07496932922552,28
"disfigured",-1.32207266948773,28
"disfigured",-0.0904876911853372,28
"disfigured",-0.0710769176451721,28
"disfigured",-0.00454222874516774,28
"disfigured",1.99938281560722,28
"disfigured",-2.26288200224136,28
"disfigured",-0.28296655881493,28
"disfigured",0.824657688159094,28
"disfigured",-0.518957215265984,28
"disfigured",1.3624436205096,28
"disfigured",-0.695294208562845,28
"disfigured",1.95478907213963,28
"disfigured",0.915009924269288,28
"disfigured",1.13430764537966,28
"disfigured",2.33642337856366,28
"disfigured",2.0785879445482,28
"disfigured",0.786938700678607,28
"disfigured",1.33423915359949,28
"disfigured",0.220883187293093,28
"disfigured",1.14472319361992,28
"disfigured",-1.0099396140233,28
"disfigured",-0.757339554903302,28
"disfigured",-0.59351402199497,28
"disfigured",-0.712904489715825,28
"disfigured",1.23007232155347,28
"disfigured",-0.612387451762077,28
"disfigured",2.66544644310274,28
"disfigured",0.349624161580458,28
"disfigured",0.358379680662824,28
"disfigured",-0.370343044844781,28
"disfigured",1.34756333722268,28
"disfigured",3.17544950170613,28
"disfigured",-0.0199722907399407,28
"disfigured",-0.443159517656362,28
"disfigured",1.81303874469697,28
"disfigured",1.97437832311277,28
"disfigured",0.422468125095312,28
"disfigured",0.545339905432871,28
"disfigured",1.33992344538165,28
"disfigured",1.2288143239652,28
"disfigured",1.15296836463145,28
"disfigured",0.342559620214862,28
"disfigured",2.72734333795906,28
"disfigured",-1.54814393000703,28
"disfigured",-0.33220762635869,28
"disfigured",1.02866408542884,28
"disfigured",1.17530764088776,28
"disfigured",0.196323852112807,28
"disfigured",0.58742197236817,28
"disfigured",-0.0707844736174698,28
"disfigured",2.17741977727129,28
"disfigured",0.813744602462881,28
"disfigured",1.95502429966706,28
"disfigured",-0.579606636756912,28
"disfigured",-0.233995554786803,28
"disfigured",1.2200619417778,28
"disfigured",-0.0835928916044554,28
"disfigured",0.0550377618929755,28
"disfigured",0.739108710003121,28
"disfigured",1.36659419513545,28
"disfigured",-2.40812388204832,28
"disfigured",1.13956158737873,28
"disfigured",1.66046761429711,28
"disfigured",1.13143263524179,28
"disfigured",0.483469369348863,28
"disfigured",1.09812407727206,28
"disfigured",0.0413129629905228,28
"disfigured",-0.9679211699219,28
"disfigured",0.048594843374677,28
"disfigured",1.51983106055406,28
"disfigured",1.39908832057592,28
"disfigured",1.40233534985724,28
"disfigured",-1.80627004311797,28
"disfigured",0.149154539036856,28
"disfigured",0.29398217728282,28
"disfigured",-0.495383585471735,28
"disfigured",-0.905773512595183,28
"disfigured",2.10995080803999,28
"disfigured",0.66640623402072,28
"disfigured",0.394538184870384,28
"disfigured",-0.68933336712733,28
"disfigured",0.651752556151002,28
"disfigured",0.359212425882704,28
"disfigured",0.0492104735895377,28
"disfigured",1.39228639617948,28
"disfigured",0.962764847681435,28
"disfigured",1.49462451366568,28
"disfigured",-1.15100793674174,28
"disfigured",1.85680433934726,28
"disfigured",1.50633496427268,28
"disfigured",1.24698516015283,28
"disfigured",1.27944289217528,28
"disfigured",1.56587836192558,28
