"face","rt","subject"
"normal",1.24074115221064,47
"normal",-0.360234722618799,47
"normal",-1.3422912747585,47
"normal",0.0787949407220611,47
"normal",-1.35373374944688,47
"normal",-1.10290162317087,47
"normal",0.00434819543134572,47
"normal",-0.523280626759683,47
"normal",-0.499455097405561,47
"normal",0.732217059083536,47
"normal",0.68706796958043,47
"normal",1.95054089739865,47
"normal",-1.88891326311794,47
"normal",1.22347428447604,47
"normal",0.422840293568692,47
"normal",-0.420026963560584,47
"normal",-1.69230565793554,47
"normal",1.51785446264607,47
"normal",1.05048857067462,47
"normal",0.106041671146887,47
"normal",0.368336898548083,47
"normal",0.278535080384031,47
"normal",0.526695942691778,47
"normal",-0.265395616878475,47
"normal",-0.117215092876348,47
"normal",-0.0148419769917537,47
"normal",0.207240722218887,47
"normal",-1.03003489897518,47
"normal",0.460787999836419,47
"normal",0.716840017220938,47
"normal",-0.294184399918106,47
"normal",1.50837546243333,47
"normal",-0.77321100162198,47
"normal",-1.21747338576538,47
"normal",-0.124770768661707,47
"normal",1.1438776942875,47
"normal",-1.14372835759985,47
"normal",-0.202782490224993,47
"normal",-1.95828475272116,47
"normal",3.71834890218933,47
"normal",0.789268522948037,47
"normal",-0.113680137928954,47
"normal",-0.365867169600693,47
"normal",-0.988457621977843,47
"normal",-0.570861476665758,47
"normal",-0.280024425631048,47
"normal",-2.12888606529204,47
"normal",-1.26546692375511,47
"normal",-1.06461134867869,47
"normal",-0.262060539797682,47
"normal",-0.318612585806615,47
"normal",-0.639803104781762,47
"normal",0.870584970336603,47
"normal",1.9326796578097,47
"normal",0.474188493906532,47
"normal",1.11291702079192,47
"normal",0.742343486687643,47
"normal",0.161414193841521,47
"normal",1.29752854680609,47
"normal",-0.372304942333323,47
"normal",-0.725251030554412,47
"normal",-2.18125111778788,47
"normal",0.739333105688807,47
"normal",0.0507043886463201,47
"normal",0.24188322134354,47
"normal",0.218885496286683,47
"normal",-0.100028974309669,47
"normal",-0.442292986276812,47
"normal",0.0244437853161295,47
"normal",0.253046163705244,47
"normal",2.15649669304053,47
"normal",-0.927908249666739,47
"normal",0.63455042464534,47
"normal",-0.797120486872185,47
"normal",-0.216003254903586,47
"normal",0.91435905858263,47
"normal",-0.291905537008293,47
"normal",0.7155116474955,47
"normal",-2.4199910337083,47
"normal",-1.82196384196166,47
"normal",0.294937203668277,47
"normal",-0.142877004243514,47
"normal",1.69354471768833,47
"normal",-0.399449907750752,47
"normal",0.308906096144082,47
"normal",0.424989577612433,47
"normal",0.413201168617789,47
"normal",1.13813985157537,47
"normal",-0.163360151065592,47
"normal",-0.431303706598327,47
"normal",2.62026533761285,47
"normal",0.633204539744679,47
"normal",0.240194142426258,47
"normal",-0.194513865322601,47
"normal",-0.853247249173036,47
"normal",-0.428437432435419,47
"normal",1.99410415207021,47
"normal",0.844907947320874,47
"normal",0.0677715789478655,47
"normal",-2.2501391212323,47
"disfigured",1.11890118467946,47
"disfigured",-0.370914551186667,47
"disfigured",-0.640400943677461,47
"disfigured",-0.232350271866787,47
"disfigured",0.495168589504118,47
"disfigured",-0.550512467876704,47
"disfigured",0.0433862856579656,47
"disfigured",0.527294235232355,47
"disfigured",0.699151508512025,47
"disfigured",-0.368744891363438,47
"disfigured",-0.522712599764115,47
"disfigured",1.77999369346889,47
"disfigured",0.0896516395179335,47
"disfigured",0.916711131503937,47
"disfigured",1.21996919614297,47
"disfigured",0.948613292506558,47
"disfigured",1.07639334008984,47
"disfigured",1.20862902693958,47
"disfigured",2.65057797262067,47
"disfigured",2.16637926514347,47
"disfigured",0.3256615374662,47
"disfigured",0.902279443901249,47
"disfigured",1.46933350998069,47
"disfigured",2.36740776227382,47
"disfigured",0.480696991236783,47
"disfigured",0.737672632746233,47
"disfigured",1.15350097272656,47
"disfigured",0.839195715452298,47
"disfigured",0.872014085910485,47
"disfigured",1.81442353061893,47
"disfigured",1.76159618755809,47
"disfigured",0.639711788151277,47
"disfigured",0.62370029143391,47
"disfigured",0.71486732635742,47
"disfigured",-0.109364828109321,47
"disfigured",1.15450116978514,47
"disfigured",0.222062830383368,47
"disfigured",0.257893468269755,47
"disfigured",-0.102433443339103,47
"disfigured",-0.636611048625365,47
"disfigured",1.19321720622633,47
"disfigured",0.777650334843854,47
"disfigured",0.263750385672793,47
"disfigured",0.0313220414318143,47
"disfigured",-1.60404016168746,47
"disfigured",1.08192143559603,47
"disfigured",0.322350831224864,47
"disfigured",2.20349907607433,47
"disfigured",-0.947788460738811,47
"disfigured",1.39534676040343,47
"disfigured",1.23207823021134,47
"disfigured",1.80633621658581,47
"disfigured",-2.12961595640395,47
"disfigured",0.586115951515154,47
"disfigured",-0.012829584412177,47
"disfigured",-0.254481278522201,47
"disfigured",0.770282487236621,47
"disfigured",-0.849093335408151,47
"disfigured",1.06873424721484,47
"disfigured",0.85662707169162,47
"disfigured",0.308398350706807,47
"disfigured",-0.235006418905854,47
"disfigured",1.64310470887069,47
"disfigured",1.12838889944153,47
"disfigured",0.426773840680949,47
"disfigured",1.30200098290049,47
"disfigured",0.472633840122256,47
"disfigured",0.952359195878663,47
"disfigured",-0.914180372027034,47
"disfigured",-0.375683377758185,47
"disfigured",-0.970459874788596,47
"disfigured",0.0477877398597256,47
"disfigured",1.80578230803885,47
"disfigured",0.662226503077335,47
"disfigured",-1.22459831237232,47
"disfigured",1.47116467410514,47
"disfigured",0.8944292545704,47
"disfigured",-0.833465694112537,47
"disfigured",1.84203628758431,47
"disfigured",2.12412171943658,47
"disfigured",0.779075024326028,47
"disfigured",-0.514517603797687,47
"disfigured",0.741190305114025,47
"disfigured",0.0834549071571307,47
"disfigured",0.106221664521841,47
"disfigured",1.37953013609848,47
"disfigured",0.338598422387105,47
"disfigured",0.418545723897295,47
"disfigured",1.23840249688223,47
"disfigured",1.21671585423605,47
"disfigured",-1.16290676721487,47
"disfigured",0.0380645941545872,47
"disfigured",1.11591597198247,47
"disfigured",1.38461320259194,47
"disfigured",1.00219785478253,47
"disfigured",0.207608052277967,47
"disfigured",0.397231283876072,47
"disfigured",2.70847155281673,47
"disfigured",0.992204281117937,47
"disfigured",0.351356890758752,47
