"face","rt","subject"
"normal",-0.36244093917913,92
"normal",-0.0807717467407426,92
"normal",1.01400476789103,92
"normal",-0.651282185656744,92
"normal",0.789116215259733,92
"normal",-0.562742580329709,92
"normal",2.30487626966368,92
"normal",-1.05376119800719,92
"normal",1.06915041986973,92
"normal",0.383426230753874,92
"normal",0.0201732560902844,92
"normal",2.69192913630531,92
"normal",0.0570298781858456,92
"normal",-2.17315416258645,92
"normal",0.509819027218259,92
"normal",-1.94382190711295,92
"normal",-0.356512130753661,92
"normal",-0.269991856907301,92
"normal",-2.25198228453681,92
"normal",0.581930305583237,92
"normal",0.0703294644639886,92
"normal",0.825122588016899,92
"normal",-0.33138916382486,92
"normal",-1.53854463292242,92
"normal",-1.90490033881384,92
"normal",-1.00527378726735,92
"normal",0.485867078663987,92
"normal",0.389951218329199,92
"normal",0.0309858773226581,92
"normal",0.28550558789693,92
"normal",0.332054001664086,92
"normal",-0.451469167049871,92
"normal",-0.00500295087863249,92
"normal",0.674646134168318,92
"normal",-0.625822909975349,92
"normal",-1.21060985883942,92
"normal",1.75642909850804,92
"normal",-0.326990579446501,92
"normal",0.238953036163004,92
"normal",1.22365697372079,92
"normal",0.445014805731314,92
"normal",-2.1569275519911,92
"normal",-1.15591590961695,92
"normal",1.41011870517471,92
"normal",1.28309118319673,92
"normal",-0.654151486349706,92
"normal",0.268291351128604,92
"normal",-0.0731514332856964,92
"normal",0.81173287677423,92
"normal",1.04086787343986,92
"normal",-1.62436883870654,92
"normal",-0.0426966690562284,92
"normal",-0.0710424756301509,92
"normal",0.100024110605184,92
"normal",0.417332219079993,92
"normal",-0.214877865471654,92
"normal",-0.812541071509993,92
"normal",0.0957564247386358,92
"normal",-0.781175353296663,92
"normal",0.00164957780366303,92
"normal",-0.0825263481692208,92
"normal",0.424427841092796,92
"normal",-0.590078662695993,92
"normal",-0.668804064314895,92
"normal",-0.927567375192406,92
"normal",0.368258507799724,92
"normal",-0.316984120596389,92
"normal",-0.297845018529462,92
"normal",-0.0384905718632258,92
"normal",-2.07853732574827,92
"normal",-0.510325138202115,92
"normal",-1.18683603976798,92
"normal",0.295888032053799,92
"normal",0.749235210122124,92
"normal",-0.079610488821298,92
"normal",-1.57384007846215,92
"normal",0.851900278711863,92
"normal",-0.219047809052646,92
"normal",-1.05432114130831,92
"normal",-0.616391613038879,92
"normal",-0.807968159755059,92
"normal",-0.429805126766291,92
"normal",0.665763399533057,92
"normal",1.24692147566499,92
"normal",-0.575595005180469,92
"normal",1.12885400849396,92
"normal",-0.376780392173294,92
"normal",-0.842973221140552,92
"normal",-1.28601353211046,92
"normal",0.402070289495477,92
"normal",1.0817648365634,92
"normal",0.633323846192834,92
"normal",0.070959380206133,92
"normal",-0.98056203956474,92
"normal",1.64905057466182,92
"normal",0.125270801988644,92
"normal",0.0728793802317411,92
"normal",-2.25065138924785,92
"normal",0.404429353583316,92
"normal",0.193862490949339,92
"disfigured",-2.37310393317247,92
"disfigured",0.587177840091374,92
"disfigured",-1.57089518143712,92
"disfigured",0.91948410444077,92
"disfigured",1.00894310465929,92
"disfigured",-0.369381297567429,92
"disfigured",1.53182836862594,92
"disfigured",0.0995593860689949,92
"disfigured",0.603851588433801,92
"disfigured",0.315770147347762,92
"disfigured",1.07627942052361,92
"disfigured",0.752633806184153,92
"disfigured",1.19549639565272,92
"disfigured",1.44071838877515,92
"disfigured",-0.536826291940442,92
"disfigured",2.45088080490779,92
"disfigured",-0.147101967552211,92
"disfigured",1.03772428390067,92
"disfigured",0.895323551186272,92
"disfigured",0.726970892588277,92
"disfigured",1.45346253317382,92
"disfigured",-0.223908247788884,92
"disfigured",0.316392518599462,92
"disfigured",-2.14248035218239,92
"disfigured",-1.69390294650495,92
"disfigured",1.71916123766621,92
"disfigured",0.201958082962268,92
"disfigured",2.00894365764057,92
"disfigured",2.11464536138734,92
"disfigured",0.933400805899278,92
"disfigured",2.15633676526671,92
"disfigured",0.745536337618496,92
"disfigured",0.0608720323344842,92
"disfigured",0.301901787671506,92
"disfigured",0.893849596587369,92
"disfigured",1.93541389511925,92
"disfigured",-1.38880995730035,92
"disfigured",0.943800316247674,92
"disfigured",0.199912480436634,92
"disfigured",0.64426429188727,92
"disfigured",1.93665787175387,92
"disfigured",0.362516702109995,92
"disfigured",-0.312887103895751,92
"disfigured",0.619455078982281,92
"disfigured",1.34048216219025,92
"disfigured",-2.35645726770566,92
"disfigured",0.230779931020726,92
"disfigured",-0.532684420034793,92
"disfigured",1.52829655236531,92
"disfigured",-0.731187552685043,92
"disfigured",0.998485686303281,92
"disfigured",0.226576164326087,92
"disfigured",-0.158169667106252,92
"disfigured",-0.133143986244181,92
"disfigured",-0.303346714201745,92
"disfigured",0.530979594298536,92
"disfigured",-0.800415966091575,92
"disfigured",-1.14673998490219,92
"disfigured",2.22657847110868,92
"disfigured",-1.45709740089556,92
"disfigured",-0.519787211851083,92
"disfigured",0.731890683694312,92
"disfigured",0.542125703990644,92
"disfigured",-0.547609556110493,92
"disfigured",2.36092141962812,92
"disfigured",1.30212967980822,92
"disfigured",0.213700637215318,92
"disfigured",0.236165189307715,92
"disfigured",1.11773696642345,92
"disfigured",1.79754087465356,92
"disfigured",0.257908370831516,92
"disfigured",0.879224809126224,92
"disfigured",0.933269318741487,92
"disfigured",-1.49919300622056,92
"disfigured",-0.351225363583083,92
"disfigured",0.864932647051972,92
"disfigured",1.92788912464282,92
"disfigured",0.0712009321451918,92
"disfigured",1.04584344225085,92
"disfigured",0.442463210000047,92
"disfigured",-0.125068970034338,92
"disfigured",-0.168259123694661,92
"disfigured",1.70260622303891,92
"disfigured",0.906040009974891,92
"disfigured",0.818432402639358,92
"disfigured",1.90738924991882,92
"disfigured",1.06136730707651,92
"disfigured",-1.84738583667114,92
"disfigured",-0.521245316242296,92
"disfigured",-0.0878660189146132,92
"disfigured",-0.791892202978996,92
"disfigured",1.07321141274582,92
"disfigured",0.883881492545074,92
"disfigured",0.235861679703955,92
"disfigured",-0.953927894407842,92
"disfigured",0.384625501037192,92
"disfigured",0.893144809943447,92
"disfigured",0.724010731322642,92
"disfigured",-0.136607390512847,92
"disfigured",-0.165272714071287,92
