"face","rt","subject"
"normal",0.407181646388011,7
"normal",0.0241896021076772,7
"normal",1.70535004405128,7
"normal",-0.75042610455281,7
"normal",-0.143705134109041,7
"normal",1.26578082395932,7
"normal",-0.406471793415527,7
"normal",0.16377505886707,7
"normal",0.751209566036611,7
"normal",0.201733059227203,7
"normal",0.513092521487936,7
"normal",1.78224397563566,7
"normal",-0.971277659871987,7
"normal",1.05176847259686,7
"normal",0.381415961167146,7
"normal",1.45511878326071,7
"normal",0.960082785414958,7
"normal",0.679832735802563,7
"normal",0.693580291762743,7
"normal",0.948459757105936,7
"normal",-0.61602341437481,7
"normal",-1.69491822357366,7
"normal",-0.608497142426739,7
"normal",0.232648691505114,7
"normal",-0.57732795082912,7
"normal",-0.649081126948196,7
"normal",0.576883975621967,7
"normal",1.71082779950256,7
"normal",0.338155429056537,7
"normal",-0.361455773716571,7
"normal",0.00991510963890139,7
"normal",0.00594259630226006,7
"normal",0.471624245878946,7
"normal",-0.941252490194555,7
"normal",0.883705803485378,7
"normal",0.112121653331931,7
"normal",-0.829814600219083,7
"normal",1.6122856349234,7
"normal",-1.33074635287354,7
"normal",-0.538648621073499,7
"normal",0.411204693836718,7
"normal",-0.650988154422621,7
"normal",-0.301050399804282,7
"normal",-0.999300798087234,7
"normal",-0.305674317519495,7
"normal",1.19022840817907,7
"normal",-0.206951787920724,7
"normal",0.749838941264477,7
"normal",1.21477663125257,7
"normal",1.87804779106091,7
"normal",-0.792031953722451,7
"normal",-1.55504802644524,7
"normal",0.0408040521734916,7
"normal",1.68746536870396,7
"normal",1.5660096326453,7
"normal",0.389845564682245,7
"normal",0.940683329046686,7
"normal",0.782602361542773,7
"normal",-1.16328423327917,7
"normal",1.21450510594888,7
"normal",0.833921563866654,7
"normal",-1.3166328364659,7
"normal",0.28955610256483,7
"normal",0.258193612579039,7
"normal",-0.0725100726886509,7
"normal",0.221263029048708,7
"normal",1.02847036103798,7
"normal",-0.0932357861327471,7
"normal",0.602519074489747,7
"normal",-1.24049914454015,7
"normal",-0.741847256199039,7
"normal",-0.126241759630453,7
"normal",1.61380485806261,7
"normal",-0.396434687641679,7
"normal",1.0063440338981,7
"normal",1.06538763597438,7
"normal",0.519836291002961,7
"normal",-0.363309297627423,7
"normal",1.3187775560402,7
"normal",0.814562337581184,7
"normal",0.751476088232413,7
"normal",1.93097411883506,7
"normal",-1.83415682023517,7
"normal",0.870359557186742,7
"normal",1.00129841044424,7
"normal",-0.366592031335142,7
"normal",-0.128252970226431,7
"normal",-0.362219005386775,7
"normal",0.0561727167750102,7
"normal",0.815744696871537,7
"normal",0.506234066608221,7
"normal",1.31423273949283,7
"normal",-1.70893543345809,7
"normal",0.53596509871897,7
"normal",0.157724131764705,7
"normal",-0.33404183118672,7
"normal",0.199896971832683,7
"normal",2.22375309328806,7
"normal",0.00441582574805562,7
"normal",0.711543659842002,7
"disfigured",-1.21329067262317,7
"disfigured",-0.00216428823082282,7
"disfigured",-1.41768702100436,7
"disfigured",-0.571594416255604,7
"disfigured",0.503854893581913,7
"disfigured",2.49198734558518,7
"disfigured",-0.520270048475181,7
"disfigured",2.106394824106,7
"disfigured",1.13414975466153,7
"disfigured",0.989607547335355,7
"disfigured",-0.0632816357849274,7
"disfigured",-0.587023184300744,7
"disfigured",2.1344930034683,7
"disfigured",-0.748582064652225,7
"disfigured",-0.367793865343328,7
"disfigured",-0.787147700157484,7
"disfigured",-0.675590477959841,7
"disfigured",0.745740854935267,7
"disfigured",-0.382275499894206,7
"disfigured",-0.912647455678899,7
"disfigured",1.03694315696244,7
"disfigured",1.12917115487259,7
"disfigured",-0.389178308037123,7
"disfigured",0.811098774567942,7
"disfigured",0.523437953931754,7
"disfigured",0.234896237047805,7
"disfigured",-0.442092219968317,7
"disfigured",-1.34452990968348,7
"disfigured",1.65309903769127,7
"disfigured",0.422176076959183,7
"disfigured",1.12170170857369,7
"disfigured",-0.829409671842523,7
"disfigured",0.531613532599032,7
"disfigured",-0.558883180492105,7
"disfigured",-0.810416951300069,7
"disfigured",0.818765112785827,7
"disfigured",1.54119410917283,7
"disfigured",0.304556115869006,7
"disfigured",-0.418932975848097,7
"disfigured",1.75396358933357,7
"disfigured",0.738952173439878,7
"disfigured",-0.617183315290354,7
"disfigured",-0.332106345409534,7
"disfigured",1.93397075678756,7
"disfigured",2.06771026015091,7
"disfigured",0.452029511979232,7
"disfigured",0.174997471814564,7
"disfigured",-0.253892750037114,7
"disfigured",0.3701402925351,7
"disfigured",1.21215886965391,7
"disfigured",0.225711927642902,7
"disfigured",0.577739589651016,7
"disfigured",-1.90251109022989,7
"disfigured",-0.23417864492717,7
"disfigured",-0.390632357903657,7
"disfigured",1.30161962230182,7
"disfigured",1.12918522862997,7
"disfigured",2.13767651701801,7
"disfigured",1.05891881090156,7
"disfigured",-2.12600631875868,7
"disfigured",0.819926936511181,7
"disfigured",0.446251964300548,7
"disfigured",-0.392057519891114,7
"disfigured",2.9118173950271,7
"disfigured",0.421597633188747,7
"disfigured",-0.529685413361188,7
"disfigured",0.119747262635276,7
"disfigured",-0.804923279521535,7
"disfigured",-1.01797242607885,7
"disfigured",1.48757962242009,7
"disfigured",1.73738964570192,7
"disfigured",-0.063901624988831,7
"disfigured",0.550273754828503,7
"disfigured",2.76622733944255,7
"disfigured",1.41449489889628,7
"disfigured",0.09522316494739,7
"disfigured",-0.977635181700724,7
"disfigured",2.40900701492202,7
"disfigured",1.46026946252852,7
"disfigured",1.23420866232454,7
"disfigured",2.47226214910212,7
"disfigured",-0.28914622711212,7
"disfigured",0.837624270147356,7
"disfigured",-0.132579557195303,7
"disfigured",0.929173669090538,7
"disfigured",2.36869187896683,7
"disfigured",1.19228683899573,7
"disfigured",0.0280855236073674,7
"disfigured",-1.11954868467622,7
"disfigured",0.786925336605147,7
"disfigured",1.06798888589257,7
"disfigured",1.06510418120019,7
"disfigured",-0.801354568627629,7
"disfigured",0.628162864278222,7
"disfigured",0.47477698503412,7
"disfigured",0.394887639783493,7
"disfigured",0.0599087361049642,7
"disfigured",-0.0658145355299889,7
"disfigured",0.590601431121552,7
"disfigured",1.38122487497016,7
