"face","rt","subject"
"normal",-1.25441530645216,55
"normal",0.0279793986741675,55
"normal",1.19388506170229,55
"normal",0.594992795249919,55
"normal",-0.390070212964592,55
"normal",0.848775046672996,55
"normal",0.441567690365174,55
"normal",0.73319531748234,55
"normal",-0.260708959112845,55
"normal",1.05917465852293,55
"normal",1.04796167566909,55
"normal",0.884687752053682,55
"normal",-0.499948011948362,55
"normal",0.823785499761667,55
"normal",-0.221506154979667,55
"normal",1.59461494145475,55
"normal",-0.525197274524413,55
"normal",-0.386754066347816,55
"normal",-1.32936437293854,55
"normal",1.27396103267556,55
"normal",0.709919878678767,55
"normal",-0.0373740799771524,55
"normal",0.854200069061887,55
"normal",0.223685333668039,55
"normal",-0.531083654498037,55
"normal",0.055537066524085,55
"normal",0.288635383750603,55
"normal",-1.80981078472403,55
"normal",1.50992786943737,55
"normal",-0.232435661452439,55
"normal",-2.01995954647912,55
"normal",-1.16538336138776,55
"normal",-0.490333524010217,55
"normal",-0.371356037959575,55
"normal",-0.278622412667226,55
"normal",-0.48949017221498,55
"normal",-0.833732750701907,55
"normal",0.541461758699145,55
"normal",-0.683552188490642,55
"normal",0.323795426012231,55
"normal",-1.29927626648697,55
"normal",-0.206444050247765,55
"normal",1.13614891239199,55
"normal",0.596781435448061,55
"normal",-0.794344414386722,55
"normal",-0.248407956229988,55
"normal",0.649757430651069,55
"normal",-0.0759942588089236,55
"normal",-1.84263695546997,55
"normal",0.730346028016207,55
"normal",-1.16146134030756,55
"normal",1.47849625015017,55
"normal",-0.406000302878624,55
"normal",-0.906635793373834,55
"normal",-0.492390530530364,55
"normal",0.0201756123017162,55
"normal",-0.0946310548688548,55
"normal",0.447229755339841,55
"normal",0.576013616285637,55
"normal",-0.363015042677667,55
"normal",-1.4949339745365,55
"normal",0.807726613651971,55
"normal",-0.893619338977076,55
"normal",2.64582087637737,55
"normal",0.459978976650684,55
"normal",-0.991322471631717,55
"normal",-1.21586099079264,55
"normal",0.688516261896807,55
"normal",0.53670952000714,55
"normal",1.8744010519282,55
"normal",1.82638877246282,55
"normal",1.08526111996202,55
"normal",0.537324486053387,55
"normal",-0.253921368371195,55
"normal",0.861317812544829,55
"normal",2.28003047415795,55
"normal",1.53530831591758,55
"normal",1.62545027896151,55
"normal",-0.157132722405817,55
"normal",-1.73670983469666,55
"normal",0.188103542015661,55
"normal",0.263153218964554,55
"normal",1.39143060724597,55
"normal",-0.163517279593717,55
"normal",1.11826061463338,55
"normal",-0.144374047164066,55
"normal",-0.910002584093386,55
"normal",0.634526448501764,55
"normal",0.23080065521217,55
"normal",-0.178364718532491,55
"normal",1.24594754188367,55
"normal",-0.277736628681093,55
"normal",0.0357481007969906,55
"normal",-1.08824355968056,55
"normal",-0.359943474747569,55
"normal",-0.921611426515232,55
"normal",-0.27890401434206,55
"normal",0.439855051156889,55
"normal",0.171478352263474,55
"normal",-0.492105983048767,55
"disfigured",1.15360551011435,55
"disfigured",-0.202011252440261,55
"disfigured",1.438116897056,55
"disfigured",0.56960570927703,55
"disfigured",-0.105341804007083,55
"disfigured",1.47145263199007,55
"disfigured",0.517819270152251,55
"disfigured",-0.0595433997849486,55
"disfigured",0.738650808347171,55
"disfigured",1.50221228258916,55
"disfigured",0.708574322582571,55
"disfigured",-0.394523891818353,55
"disfigured",1.34498605849369,55
"disfigured",-0.544220149096536,55
"disfigured",0.759614472421866,55
"disfigured",-0.126277816358306,55
"disfigured",0.745833730763046,55
"disfigured",-0.14191240845828,55
"disfigured",0.96428907027752,55
"disfigured",-1.15279029582636,55
"disfigured",0.598739844014677,55
"disfigured",-1.01254365008,55
"disfigured",0.2245404902408,55
"disfigured",-0.413549124728975,55
"disfigured",2.05654757314601,55
"disfigured",0.0357980835562964,55
"disfigured",1.22815436486358,55
"disfigured",1.0239892114749,55
"disfigured",1.06046187704012,55
"disfigured",1.64780937307798,55
"disfigured",0.156433952070385,55
"disfigured",-0.714858726364056,55
"disfigured",1.52591828341015,55
"disfigured",-0.0454736022488285,55
"disfigured",2.00594783233182,55
"disfigured",1.9337221786111,55
"disfigured",-0.369799670747682,55
"disfigured",1.09642550797463,55
"disfigured",1.77289747551949,55
"disfigured",1.06207763310955,55
"disfigured",2.05739639710958,55
"disfigured",1.07745415277327,55
"disfigured",-0.348036975147173,55
"disfigured",1.08489421369136,55
"disfigured",-1.24470615873084,55
"disfigured",0.0873262474366813,55
"disfigured",1.29497143613363,55
"disfigured",-0.0511228244671538,55
"disfigured",-1.73961922401076,55
"disfigured",1.49784875456174,55
"disfigured",-1.29864807812136,55
"disfigured",1.9213947217986,55
"disfigured",1.05383721684509,55
"disfigured",0.4805463271446,55
"disfigured",0.775127257857774,55
"disfigured",1.71493016896257,55
"disfigured",-0.441952099368267,55
"disfigured",1.50287551733075,55
"disfigured",-1.6002606269544,55
"disfigured",0.726470622468597,55
"disfigured",1.45863373073758,55
"disfigured",2.04357998437651,55
"disfigured",-0.116581205249385,55
"disfigured",0.295905219841088,55
"disfigured",-0.436664019615624,55
"disfigured",1.56982641920464,55
"disfigured",0.469461754680368,55
"disfigured",1.68802747269894,55
"disfigured",1.26399435654298,55
"disfigured",1.50419760384803,55
"disfigured",0.816624956526445,55
"disfigured",0.0809480478179442,55
"disfigured",0.978650524632447,55
"disfigured",1.13247650565036,55
"disfigured",-0.822079554076072,55
"disfigured",1.39783608917571,55
"disfigured",1.06061214947601,55
"disfigured",2.49914732089338,55
"disfigured",1.27780468295674,55
"disfigured",1.04825187658513,55
"disfigured",1.19940126430398,55
"disfigured",-0.974287087522497,55
"disfigured",1.93484825431588,55
"disfigured",1.33032333488357,55
"disfigured",-0.259406513812273,55
"disfigured",0.599264551874189,55
"disfigured",0.161136246868642,55
"disfigured",1.71524033186509,55
"disfigured",0.870110745377341,55
"disfigured",0.129844971542343,55
"disfigured",0.805254752091993,55
"disfigured",-0.107595562222985,55
"disfigured",0.0912882867137773,55
"disfigured",-0.235435117776536,55
"disfigured",0.597911770353652,55
"disfigured",1.33385250657899,55
"disfigured",0.362646960272301,55
"disfigured",-0.0833779691006797,55
"disfigured",-0.370021950677802,55
"disfigured",1.86221691212608,55
