"face","rt","subject"
"normal",-0.560707278114085,73
"normal",-0.470385288365486,73
"normal",-0.393015383385103,73
"normal",0.670175385362134,73
"normal",0.65307440879999,73
"normal",2.0109241743899,73
"normal",0.3323155777586,73
"normal",0.768221391592073,73
"normal",-0.893009710426234,73
"normal",0.708888615036063,73
"normal",-1.44659546239438,73
"normal",2.26298653641778,73
"normal",-0.0630909292639878,73
"normal",1.10509987553466,73
"normal",-0.0110010992024256,73
"normal",1.17950740399507,73
"normal",0.440711037370337,73
"normal",0.110281861768896,73
"normal",1.5523674197872,73
"normal",-0.0591250766331494,73
"normal",-0.807035359037473,73
"normal",-0.551534200498693,73
"normal",-1.05813434037937,73
"normal",0.231889332068866,73
"normal",0.852942569412648,73
"normal",-0.0210928568873802,73
"normal",-0.80148513391597,73
"normal",-0.114029940548362,73
"normal",-0.982188152448088,73
"normal",1.01705938093179,73
"normal",-0.166450884264777,73
"normal",-0.833550822877539,73
"normal",2.04112839110584,73
"normal",-0.476066419679505,73
"normal",-0.887082074022139,73
"normal",-1.89999461325545,73
"normal",0.506474469823183,73
"normal",-0.874286892555741,73
"normal",-1.25016451860937,73
"normal",0.221442291759082,73
"normal",-0.203543704734142,73
"normal",1.95101650312284,73
"normal",-1.22964402805244,73
"normal",0.211488514904763,73
"normal",0.489801566624294,73
"normal",-2.36334406369559,73
"normal",2.17219584068153,73
"normal",0.769689070950553,73
"normal",-1.67346028493553,73
"normal",0.195837964110834,73
"normal",0.112729866567151,73
"normal",0.333669314258598,73
"normal",-0.401869964897214,73
"normal",0.0527703011527319,73
"normal",1.16777222570663,73
"normal",0.452368032430482,73
"normal",-0.771370666221092,73
"normal",-0.159349558415117,73
"normal",-1.54899429470467,73
"normal",0.572694008741893,73
"normal",0.137708944354107,73
"normal",-0.396426514304338,73
"normal",1.29119703808807,73
"normal",-1.01267833917837,73
"normal",1.27060716067426,73
"normal",-0.282023329904015,73
"normal",-0.122387103688987,73
"normal",0.378617857377873,73
"normal",1.26094950173831,73
"normal",0.95073159471284,73
"normal",0.504196477213062,73
"normal",-0.114440061766045,73
"normal",-0.35532720756242,73
"normal",-1.08181831595469,73
"normal",0.93637960373975,73
"normal",1.44643372287279,73
"normal",2.52989206451244,73
"normal",-0.701024329662837,73
"normal",0.173922706969605,73
"normal",1.48617879004426,73
"normal",0.537240485972047,73
"normal",-1.28714041738259,73
"normal",-0.395584164567932,73
"normal",0.801182007053144,73
"normal",1.65268668698953,73
"normal",0.02425666385272,73
"normal",-1.16784996862665,73
"normal",1.90560192235351,73
"normal",-1.2282913738401,73
"normal",0.159024774656614,73
"normal",-0.0829382072397526,73
"normal",0.10329447665648,73
"normal",0.837556142978699,73
"normal",0.827813519762468,73
"normal",-0.329569071617036,73
"normal",0.183081743521364,73
"normal",0.0507681872103361,73
"normal",-0.972448792811524,73
"normal",-0.69050702508594,73
"normal",-0.340686458555069,73
"disfigured",-0.21528731051228,73
"disfigured",1.0281296296188,73
"disfigured",1.1972967997324,73
"disfigured",0.149788870015158,73
"disfigured",-0.493689448441116,73
"disfigured",-1.76079671593158,73
"disfigured",0.61624747946702,73
"disfigured",2.41822515268169,73
"disfigured",-0.147479009382051,73
"disfigured",1.01198298520344,73
"disfigured",0.453447953973818,73
"disfigured",0.984055744703451,73
"disfigured",-0.226101164435995,73
"disfigured",2.49734469352614,73
"disfigured",-0.0367072259803862,73
"disfigured",1.11715504960372,73
"disfigured",-0.769409917974582,73
"disfigured",-0.165495284934319,73
"disfigured",1.2756884080553,73
"disfigured",-0.957012344000343,73
"disfigured",-0.19603932236466,73
"disfigured",1.51435077139233,73
"disfigured",-1.110177001815,73
"disfigured",-1.00166282573126,73
"disfigured",3.00723066053929,73
"disfigured",-2.05979981119621,73
"disfigured",2.84762566154316,73
"disfigured",0.803627755579939,73
"disfigured",2.30487824670279,73
"disfigured",-0.00998471670971179,73
"disfigured",0.555203260957229,73
"disfigured",0.437235818845421,73
"disfigured",0.221912759684556,73
"disfigured",-1.03232997128652,73
"disfigured",0.113260461853043,73
"disfigured",1.09131311480064,73
"disfigured",2.09704723826021,73
"disfigured",-1.1552461720611,73
"disfigured",1.87560675571198,73
"disfigured",0.538976810070882,73
"disfigured",1.65750092234292,73
"disfigured",1.16735813323458,73
"disfigured",0.678037716747944,73
"disfigured",0.857450286532575,73
"disfigured",1.5851361295128,73
"disfigured",0.812392194147194,73
"disfigured",1.45736371548746,73
"disfigured",1.8144134347198,73
"disfigured",0.639858118586322,73
"disfigured",1.44239942984892,73
"disfigured",0.060796387682593,73
"disfigured",-0.0534485796973865,73
"disfigured",1.58681341538729,73
"disfigured",-0.667179161720239,73
"disfigured",2.5792343492635,73
"disfigured",0.805886602125226,73
"disfigured",2.14744555704885,73
"disfigured",1.94484602367138,73
"disfigured",0.166859946005643,73
"disfigured",-0.0314537528014487,73
"disfigured",0.286208229050383,73
"disfigured",-1.10873038662941,73
"disfigured",1.33966640399585,73
"disfigured",1.47420224961482,73
"disfigured",0.593981602809139,73
"disfigured",-0.0347038928215989,73
"disfigured",-0.0576908672923878,73
"disfigured",1.83995780538032,73
"disfigured",2.08775776184129,73
"disfigured",0.181277521800104,73
"disfigured",0.602833461444548,73
"disfigured",-0.224143390114923,73
"disfigured",0.905198761772793,73
"disfigured",1.38655835130893,73
"disfigured",-0.151834655221423,73
"disfigured",0.880589937724179,73
"disfigured",1.16512525526636,73
"disfigured",1.43530684595224,73
"disfigured",-0.632337407680061,73
"disfigured",2.98076002893929,73
"disfigured",0.60364710335163,73
"disfigured",0.459748848815322,73
"disfigured",0.792533922524638,73
"disfigured",1.22024354877114,73
"disfigured",2.73172184611824,73
"disfigured",2.25876036318792,73
"disfigured",1.42735939889833,73
"disfigured",0.173110734855427,73
"disfigured",-2.0856564035819,73
"disfigured",1.93880374053794,73
"disfigured",-1.02277626517486,73
"disfigured",-0.51266071359712,73
"disfigured",1.98958713276106,73
"disfigured",0.0934685485541111,73
"disfigured",0.981341630671115,73
"disfigured",-0.313147972484991,73
"disfigured",0.443180262234947,73
"disfigured",1.39252199281072,73
"disfigured",-1.19802660580985,73
"disfigured",0.03953852091143,73
